module github.com/CycloneDX/cyclonedx-gomod

go 1.18

require (
	github.com/CycloneDX/cyclonedx-go v0.7.1
	github.com/bradleyjkemp/cupaloy/v2 v2.8.0
	github.com/go-enry/go-license-detector/v4 v4.3.0
	github.com/go-git/go-git/v5 v5.9.0
	github.com/google/uuid v1.3.1
	github.com/peterbourgon/ff/v3 v3.4.0
	github.com/rs/zerolog v1.31.0
	github.com/stretchr/testify v1.8.4
	golang.org/x/crypto v0.14.0
	golang.org/x/exp v0.0.0-20230801115018-d63ba01acd4b
	golang.org/x/mod v0.13.0
)

require (
	dario.cat/mergo v1.0.0 // indirect
	github.com/Microsoft/go-winio v0.6.1 // indirect
	github.com/ProtonMail/go-crypto v0.0.0-20230828082145-3c4c8a2d2371 // indirect
	github.com/acomagu/bufpipe v1.0.4 // indirect
	github.com/cloudflare/circl v1.3.3 // indirect
	github.com/cyphar/filepath-securejoin v0.2.4 // indirect
	github.com/davecgh/go-spew v1.1.1 // indirect
	github.com/dgryski/go-minhash v0.0.0-20170608043002-7fe510aff544 // indirect
	github.com/ekzhu/minhash-lsh v0.0.0-20171225071031-5c06ee8586a1 // indirect
	github.com/emirpasic/gods v1.18.1 // indirect
	github.com/go-git/gcfg v1.5.1-0.20230307220236-3a3c6141e376 // indirect
	github.com/go-git/go-billy/v5 v5.5.0 // indirect
	github.com/golang/groupcache v0.0.0-20210331224755-41bb18bfe9da // indirect
	github.com/hhatto/gorst v0.0.0-20181029133204-ca9f730cac5b // indirect
	github.com/jbenet/go-context v0.0.0-20150711004518-d14ea06fba99 // indirect
	github.com/jdkato/prose v1.1.0 // indirect
	github.com/kevinburke/ssh_config v1.2.0 // indirect
	github.com/mattn/go-colorable v0.1.13 // indirect
	github.com/mattn/go-isatty v0.0.19 // indirect
	github.com/montanaflynn/stats v0.0.0-20151014174947-eeaced052adb // indirect
	github.com/pjbgf/sha1cd v0.3.0 // indirect
	github.com/pkg/errors v0.9.1 // indirect
	github.com/pmezard/go-difflib v1.0.0 // indirect
	github.com/russross/blackfriday/v2 v2.0.1 // indirect
	github.com/sergi/go-diff v1.1.0 // indirect
	github.com/shogo82148/go-shuffle v0.0.0-20170808115208-59829097ff3b // indirect
	github.com/shurcooL/sanitized_anchor_name v0.0.0-20170918181015-86672fcb3f95 // indirect
	github.com/skeema/knownhosts v1.2.0 // indirect
	github.com/xanzy/ssh-agent v0.3.3 // indirect
	golang.org/x/net v0.17.0 // indirect
	golang.org/x/sys v0.13.0 // indirect
	golang.org/x/text v0.13.0 // indirect
	golang.org/x/tools v0.13.0 // indirect
	gonum.org/v1/gonum v0.7.0 // indirect
	gopkg.in/neurosnap/sentences.v1 v1.0.6 // indirect
	gopkg.in/warnings.v0 v0.1.2 // indirect
	gopkg.in/yaml.v3 v3.0.1 // indirect
)
